[gd_scene load_steps=2 format=3 uid="uid://dxvufa2qdikhi"]

[ext_resource type="Script" path="res://DragPreview.gd" id="1_bajqb"]

[node name="DragPreview" type="Control"]
layout_mode = 3
anchors_preset = 0
mouse_filter = 2
script = ExtResource("1_bajqb")

[node name="Label" type="Label" parent="."]
layout_mode = 1
anchors_preset = 1
anchor_left = 1.0
anchor_right = 1.0
offset_left = -40.0
offset_bottom = 23.0
grow_horizontal = 0
horizontal_alignment = 2
