[gd_scene load_steps=8 format=3 uid="uid://dn8fad38i862"]

[ext_resource type="Script" path="res://Systems/Power/PowerReceiver.gd" id="1_qorh1"]
[ext_resource type="Script" path="res://Entities/Entities/BatteryEntity.gd" id="1_v8jcx"]
[ext_resource type="Script" path="res://Systems/Power/PowerSource.gd" id="2_uxe3q"]
[ext_resource type="Texture2D" uid="uid://sjfq7arvwr1g" path="res://Shared/tileset.svg" id="3_hsm7a"]
[ext_resource type="Texture2D" uid="uid://b2rv45dwgconq" path="res://Shared/battery_indicator.png" id="5_olkmo"]
[ext_resource type="Shader" path="res://Entities/Blueprints/BatteryIndicator.gdshader" id="5_tihcb"]

[sub_resource type="ShaderMaterial" id="ShaderMaterial_pbuf2"]
resource_local_to_scene = true
shader = ExtResource("5_tihcb")
shader_parameter/amount = 0.516

[node name="BatteryEntity" type="StaticBody2D" groups=["power_receivers", "power_sources"]]
script = ExtResource("1_v8jcx")

[node name="PowerReceiver" type="Node" parent="."]
script = ExtResource("1_qorh1")
power_required = 200.0

[node name="PowerSource" type="Node" parent="."]
script = ExtResource("2_uxe3q")
power_amount = 200.0
output_direction = 4

[node name="Sprite2D" type="Sprite2D" parent="."]
position = Vector2(0, -16)
texture = ExtResource("3_hsm7a")
region_enabled = true
region_rect = Rect2(339, 119, 102, 82)

[node name="CollisionPolygon2D" type="CollisionPolygon2D" parent="."]
position = Vector2(0, -16)
polygon = PackedVector2Array(-1, -21, -51, 4, -51, 15, -1, 39, 50, 15, 49, 4)

[node name="Indicator" type="Sprite2D" parent="."]
material = SubResource("ShaderMaterial_pbuf2")
position = Vector2(-24, -19)
scale = Vector2(0.6875, 0.6875)
texture = ExtResource("5_olkmo")

[connection signal="received_power" from="PowerReceiver" to="." method="_on_PowerReceiver_received_power"]
[connection signal="power_updated" from="PowerSource" to="." method="_on_PowerSource_power_updated"]
