[gd_scene load_steps=3 format=3 uid="uid://c1i3kc8ig3cbo"]

[ext_resource type="Texture2D" uid="uid://sjfq7arvwr1g" path="res://Shared/tileset.svg" id="1_kwynq"]
[ext_resource type="Script" path="res://Entities/Entities/WireEntity.gd" id="1_oty3e"]

[node name="WireEntity" type="Node2D" groups=["power_movers"]]
script = ExtResource("1_oty3e")

[node name="Sprite2D" type="Sprite2D" parent="."]
position = Vector2(0, 27)
texture = ExtResource("1_kwynq")
region_enabled = true
region_rect = Rect2(120, 10, 100, 100)
