[gd_scene load_steps=3 format=3 uid="uid://c45ckl1w06kit"]

[ext_resource type="Script" path="res://GUI/QuickBar.gd" id="1_dwrgh"]
[ext_resource type="PackedScene" uid="uid://thgqha127lcp" path="res://GUI/QuickBarInventoryPanel.tscn" id="2_byulg"]

[node name="QuickBar" type="HBoxContainer"]
offset_right = 40.0
offset_bottom = 40.0
theme_override_constants/separation = 10
script = ExtResource("1_dwrgh")
InventoryPanelScene = ExtResource("2_byulg")
