[gd_scene load_steps=3 format=3 uid="uid://eoyjuiyw7kl7"]

[ext_resource type="Script" path="res://Entities/Blueprints/BlueprintEntity.gd" id="1_x56eb"]
[ext_resource type="Texture2D" uid="uid://boklppnubk2sm" path="res://Shared/blueprints.svg" id="2_o3q1t"]

[node name="StirlingEngineBlueprint" type="Node2D"]
script = ExtResource("1_x56eb")
stack_size = 8

[node name="Sprite2D" type="Sprite2D" parent="."]
position = Vector2(0, -20)
texture = ExtResource("2_o3q1t")
region_enabled = true
region_rect = Rect2(889, 119, 102, 92)
