[gd_scene load_steps=3 format=3 uid="uid://cb8xs03iy3jhi"]

[ext_resource type="Script" path="res://Entities/Blueprints/WireBlueprint.gd" id="1_1gx6p"]
[ext_resource type="Texture2D" uid="uid://boklppnubk2sm" path="res://Shared/blueprints.svg" id="1_8btxh"]

[node name="WireBlueprint" type="Node2D"]
script = ExtResource("1_1gx6p")
stack_size = 50

[node name="Sprite2D" type="Sprite2D" parent="."]
position = Vector2(0, 27)
texture = ExtResource("1_8btxh")
region_enabled = true
region_rect = Rect2(120, 10, 100, 100)
